<?xml version="1.0" encoding="UTF-8" standalone="no"?>
<svg width="185px" height="270px" viewBox="0 0 185 270" version="1.1" xmlns="http://www.w3.org/2000/svg" xmlns:xlink="http://www.w3.org/1999/xlink" xmlns:sketch="http://www.bohemiancoding.com/sketch/ns">
    <g id="Page-1" stroke="none" stroke-width="1" fill="none" fill-rule="evenodd" sketch:type="MSPage">
        <path d="M184.136719,0.37890625 L0.23046875,269.867188 L184.136719,269.867188 L184.136719,0.37890625 Z" id="half_triangle" fill="#fff" sketch:type="MSShapeGroup"></path>
    </g>
</svg>